[
    {"title":"Tour 1","price":"120","url":"https://picsum.photos/id/999/","articulus":11111,"color":"red"},
    {"title":"Tour 2","price":"125","url":"https://picsum.photos/id/998/","articulus":11112,"color":"blue"},
    {"title":"Tour 3","price":"100","url":"https://picsum.photos/id/777/","articulus":11113,"color":"white"},
    {"title":"Tour 4","price":"120","url":"https://picsum.photos/id/776/","articulus":11114,"color":"red"},
    {"title":"Tour 5","price":"220","url":"https://picsum.photos/id/778/","articulus":11115,"color":"black"},
    {"title":"Tour 6","price":"230","url":"https://picsum.photos/id/888/","articulus":11116,"color":"orange"},
    {"title":"Tour 7","price":"190","url":"https://picsum.photos/id/666/","articulus":11117,"color":"yellow"},
    {"title":"Tour 8","price":"180","url":"https://picsum.photos/id/579/","articulus":11118,"color":"pink"},
    {"title":"Tour 9","price":"100","url":"https://picsum.photos/id/699/","articulus":11119,"color":"green"},
    {"title":"Tour 10","price":"150","url":"https://picsum.photos/id/799/","articulus":11120,"color":"indigo"},
    {"title":"Tour 11","price":"190","url":"https://picsum.photos/id/789/","articulus":11121,"color":"violet"},
    {"title":"Tour 12","price":"250","url":"https://picsum.photos/id/779/","articulus":11122,"color":"til"}
]
